%YAML 1.1
%TAG !u! tag:unity3d.com,2011:
--- !u!74 &7400000
AnimationClip:
  m_ObjectHideFlags: 0
  m_CorrespondingSourceObject: {fileID: 0}
  m_PrefabInstance: {fileID: 0}
  m_PrefabAsset: {fileID: 0}
  m_Name: SelectKartExit
  serializedVersion: 6
  m_Legacy: 0
  m_Compressed: 0
  m_UseHighQualityCurve: 1
  m_RotationCurves: []
  m_CompressedRotationCurves: []
  m_EulerCurves: []
  m_PositionCurves: []
  m_ScaleCurves: []
  m_FloatCurves:
  - curve:
      serializedVersion: 2
      m_Curve:
      - serializedVersion: 3
        time: 0
        value: 45
        inSlope: 143.30183
        outSlope: 143.30183
        tangentMode: 0
        weightedMode: 0
        inWeight: 0.33333334
        outWeight: 0.589792
      - serializedVersion: 3
        time: 0.083333336
        value: 52.7029
        inSlope: 46.57834
        outSlope: 46.57834
        tangentMode: 0
        weightedMode: 0
        inWeight: 0.33333334
        outWeight: 0.81474483
      - serializedVersion: 3
        time: 0.2
        value: 56.72505
        inSlope: 18.342548
        outSlope: 18.342548
        tangentMode: 0
        weightedMode: 0
        inWeight: 0.33333334
        outWeight: 0.17967203
      - serializedVersion: 3
        time: 1
        value: 60
        inSlope: 0
        outSlope: 0
        tangentMode: 136
        weightedMode: 0
        inWeight: 0.33333334
        outWeight: 0.33333334
      m_PreInfinity: 2
      m_PostInfinity: 2
      m_RotationOrder: 4
    attribute: field of view
    path: Gimbal/Main Camera
    classID: 20
    script: {fileID: 0}
  m_PPtrCurves: []
  m_SampleRate: 60
  m_WrapMode: 0
  m_Bounds:
    m_Center: {x: 0, y: 0, z: 0}
    m_Extent: {x: 0, y: 0, z: 0}
  m_ClipBindingConstant:
    genericBindings:
    - serializedVersion: 2
      path: 1341249945
      attribute: 3138646591
      script: {fileID: 0}
      typeID: 20
      customType: 37
      isPPtrCurve: 0
    pptrCurveMapping: []
  m_AnimationClipSettings:
    serializedVersion: 2
    m_AdditiveReferencePoseClip: {fileID: 0}
    m_AdditiveReferencePoseTime: 0
    m_StartTime: 0
    m_StopTime: 1
    m_OrientationOffsetY: 0
    m_Level: 0
    m_CycleOffset: 0
    m_HasAdditiveReferencePose: 0
    m_LoopTime: 0
    m_LoopBlend: 0
    m_LoopBlendOrientation: 0
    m_LoopBlendPositionY: 0
    m_LoopBlendPositionXZ: 0
    m_KeepOriginalOrientation: 0
    m_KeepOriginalPositionY: 1
    m_KeepOriginalPositionXZ: 0
    m_HeightFromFeet: 0
    m_Mirror: 0
  m_EditorCurves:
  - curve:
      serializedVersion: 2
      m_Curve:
      - serializedVersion: 3
        time: 0
        value: 45
        inSlope: 143.30183
        outSlope: 143.30183
        tangentMode: 0
        weightedMode: 0
        inWeight: 0.33333334
        outWeight: 0.589792
      - serializedVersion: 3
        time: 0.083333336
        value: 52.7029
        inSlope: 46.57834
        outSlope: 46.57834
        tangentMode: 0
        weightedMode: 0
        inWeight: 0.33333334
        outWeight: 0.81474483
      - serializedVersion: 3
        time: 0.2
        value: 56.72505
        inSlope: 18.342548
        outSlope: 18.342548
        tangentMode: 0
        weightedMode: 0
        inWeight: 0.33333334
        outWeight: 0.17967203
      - serializedVersion: 3
        time: 1
        value: 60
        inSlope: 0
        outSlope: 0
        tangentMode: 136
        weightedMode: 0
        inWeight: 0.33333334
        outWeight: 0.33333334
      m_PreInfinity: 2
      m_PostInfinity: 2
      m_RotationOrder: 4
    attribute: field of view
    path: Gimbal/Main Camera
    classID: 20
    script: {fileID: 0}
  m_EulerEditorCurves: []
  m_HasGenericRootTransform: 0
  m_HasMotionFloatCurves: 0
  m_Events: []
