%YAML 1.1
%TAG !u! tag:unity3d.com,2011:
--- !u!74 &7400000
AnimationClip:
  m_ObjectHideFlags: 0
  m_CorrespondingSourceObject: {fileID: 0}
  m_PrefabInstance: {fileID: 0}
  m_PrefabAsset: {fileID: 0}
  m_Name: GamesON
  serializedVersion: 6
  m_Legacy: 0
  m_Compressed: 0
  m_UseHighQualityCurve: 1
  m_RotationCurves: []
  m_CompressedRotationCurves: []
  m_EulerCurves: []
  m_PositionCurves: []
  m_ScaleCurves: []
  m_FloatCurves: []
  m_PPtrCurves:
  - curve:
    - time: 0
      value: {fileID: 21300000, guid: 7487021f35949c442b7b6f132fad1bf4, type: 3}
    - time: 0.016666668
      value: {fileID: 21300000, guid: 5eff705e99a6d4b4082b35f58d340b02, type: 3}
    - time: 0.033333335
      value: {fileID: 21300000, guid: 692b8f564fbceea49b78950eab55c461, type: 3}
    - time: 0.05
      value: {fileID: 21300000, guid: 2165a28d33d828f4c8efde969727057e, type: 3}
    - time: 0.06666667
      value: {fileID: 21300000, guid: 8d4df498e2d04b349a2be7d521adbbc8, type: 3}
    - time: 0.083333336
      value: {fileID: 21300000, guid: fec1f6fa9908d43409edaee613710622, type: 3}
    - time: 0.1
      value: {fileID: 21300000, guid: 6e38a41d3372c5a4b99f3630d1617317, type: 3}
    - time: 0.11666667
      value: {fileID: 21300000, guid: 068e731b810ffdc4eb19f767af597610, type: 3}
    - time: 0.13333334
      value: {fileID: 21300000, guid: df8b1aa1326fad146a7de51e02a13b7d, type: 3}
    - time: 0.15
      value: {fileID: 21300000, guid: 2d510c180c741d44e900e57749f257cf, type: 3}
    - time: 0.16666667
      value: {fileID: 21300000, guid: ff1bdc1c1bedeb04ca27897807a7f925, type: 3}
    - time: 0.18333334
      value: {fileID: 21300000, guid: 83ff79b269cb48d4eb6d42a4e0061bb0, type: 3}
    - time: 0.2
      value: {fileID: 21300000, guid: d737c3320aace7941b50b632fc7c0afd, type: 3}
    - time: 0.21666667
      value: {fileID: 21300000, guid: 5698119f22013674ab956edea1602c80, type: 3}
    - time: 0.23333333
      value: {fileID: 21300000, guid: 56fd46d2cf3a74248a908aea088ea95c, type: 3}
    - time: 0.25
      value: {fileID: 21300000, guid: e0c2824cb61240042b2896d296f506cd, type: 3}
    - time: 0.26666668
      value: {fileID: 21300000, guid: e30e1172d55d1684fa995e97047bfd88, type: 3}
    - time: 0.28333333
      value: {fileID: 21300000, guid: 9d5fa98c00f182b4f9b01cdd513f427b, type: 3}
    - time: 0.3
      value: {fileID: 21300000, guid: da11f562760c2f149afdf2fc43bd0b70, type: 3}
    - time: 0.31666666
      value: {fileID: 21300000, guid: eb51a4d6a9a8b494682215ea2e89268d, type: 3}
    - time: 0.33333334
      value: {fileID: 21300000, guid: 6fb0e7337743ac141b38a5881d6932f8, type: 3}
    - time: 0.35
      value: {fileID: 21300000, guid: 0027f1f13eceac74d98053a39aa68dd8, type: 3}
    - time: 0.36666667
      value: {fileID: 21300000, guid: 6eac89303f2b43c4eade6cba7c671d0f, type: 3}
    - time: 0.38333333
      value: {fileID: 21300000, guid: 1e7dd11089c6fd84f97fcfe34dc2d578, type: 3}
    - time: 0.4
      value: {fileID: 21300000, guid: 5ebc249bafde2bf40a19099990ebdeb3, type: 3}
    - time: 0.41666666
      value: {fileID: 21300000, guid: d9858c4df13baf644a76dd5c84f66541, type: 3}
    - time: 0.43333334
      value: {fileID: 21300000, guid: 55798872f58b52a42a97246214c74e3f, type: 3}
    - time: 0.45
      value: {fileID: 21300000, guid: da8b9c98c9102dd4e9d6a1947e0ce6ed, type: 3}
    - time: 0.46666667
      value: {fileID: 21300000, guid: d763d82e5d0056e468a9750fda1c908a, type: 3}
    - time: 0.48333332
      value: {fileID: 21300000, guid: 283cccaba3c953f478d595f2ddbe6839, type: 3}
    - time: 0.5
      value: {fileID: 21300000, guid: 5da8a5fb30ac6cb4caab3e3210371f6f, type: 3}
    - time: 0.51666665
      value: {fileID: 21300000, guid: 5725691a98bef2a4f8686a2bafca5a0c, type: 3}
    - time: 0.53333336
      value: {fileID: 21300000, guid: a2a0e1ab299a1c74abe9eecda226c5f8, type: 3}
    - time: 0.55
      value: {fileID: 21300000, guid: 637e18b510c3e164a98610232e7589b0, type: 3}
    - time: 0.56666666
      value: {fileID: 21300000, guid: 0f7738335e4dff044a5550077d784bfd, type: 3}
    - time: 0.5833333
      value: {fileID: 21300000, guid: 83d98cf69608f4d4b87e0149c0d2ef17, type: 3}
    - time: 0.6
      value: {fileID: 21300000, guid: adcbd8967df5ba641bb5b76952141afa, type: 3}
    - time: 0.6166667
      value: {fileID: 21300000, guid: a18de0edd7bf0ff4d96cc8811e719933, type: 3}
    - time: 0.6333333
      value: {fileID: 21300000, guid: a1dcb617dffcb2644b4d890a2e08d632, type: 3}
    - time: 0.65
      value: {fileID: 21300000, guid: fe28b3d34df91a843aa80e488346ca89, type: 3}
    - time: 0.6666667
      value: {fileID: 21300000, guid: 3717180a3da297543bd8fd02ba83c5dc, type: 3}
    - time: 0.68333334
      value: {fileID: 21300000, guid: dfbdcd28b5b83584394a1e0b9da59903, type: 3}
    - time: 0.7
      value: {fileID: 21300000, guid: 440129f50a3f9584f91fe2fdb6ac8e51, type: 3}
    - time: 0.71666664
      value: {fileID: 21300000, guid: 9350484de560d6549afd5f730052fd32, type: 3}
    - time: 0.73333335
      value: {fileID: 21300000, guid: 0f5d54d0e6e983e4c8a6bdac79be3800, type: 3}
    - time: 0.75
      value: {fileID: 21300000, guid: 217c005d6bfc42f4c9f22fa4a47bd8ac, type: 3}
    - time: 0.76666665
      value: {fileID: 21300000, guid: 75cdedd30e5719945bcfd57206643034, type: 3}
    - time: 0.78333336
      value: {fileID: 21300000, guid: ad9cda031711df94181c95b24613058b, type: 3}
    - time: 0.8
      value: {fileID: 21300000, guid: 4247e7ab44de29044b2d575a38545ba2, type: 3}
    - time: 0.81666666
      value: {fileID: 21300000, guid: 0d3a79af56f1ecd48a261a4d0480421d, type: 3}
    - time: 0.8333333
      value: {fileID: 21300000, guid: 38323ebd211ee4146a0afeed98ac4922, type: 3}
    - time: 0.85
      value: {fileID: 21300000, guid: bd8c810dc75081645bdfbd6a87ff6239, type: 3}
    - time: 0.8666667
      value: {fileID: 21300000, guid: bb5f5cc4a3f73b6488b30d1444769fef, type: 3}
    - time: 0.8833333
      value: {fileID: 21300000, guid: c39de7bab298acb4bb9dad86ca0c201b, type: 3}
    - time: 0.9
      value: {fileID: 21300000, guid: 2dfddb9423ebd1749b40af8b5dc40625, type: 3}
    - time: 0.9166667
      value: {fileID: 21300000, guid: 18ce33fd6e89cb84599a27c89574453f, type: 3}
    - time: 0.93333334
      value: {fileID: 21300000, guid: da28a3c1c1a16d644a218c8bf9771a9a, type: 3}
    - time: 0.95
      value: {fileID: 21300000, guid: 810db8c9139a2744dabd37e53268ca5b, type: 3}
    - time: 0.96666664
      value: {fileID: 21300000, guid: 8da06c2f0b3533a4d9b525f2c20a2739, type: 3}
    - time: 0.98333335
      value: {fileID: 21300000, guid: 553c10a30889b0842860b55ac885180e, type: 3}
    - time: 1
      value: {fileID: 21300000, guid: d0f934def2c910a419844af27358f638, type: 3}
    - time: 1.0166667
      value: {fileID: 21300000, guid: b7086c0e554962545aa0e3e7b0938f46, type: 3}
    - time: 1.0333333
      value: {fileID: 21300000, guid: 7804ca4fb560dcf498219782ff4d7101, type: 3}
    - time: 1.05
      value: {fileID: 21300000, guid: 41a628feb3ba13a4fa4d2c85056e60ce, type: 3}
    - time: 1.0666667
      value: {fileID: 21300000, guid: 7c64a8d1ef77af44aab4db30533b4c8b, type: 3}
    - time: 1.0833334
      value: {fileID: 21300000, guid: 64eeec8a63c7a704e87fd78be8eb63e4, type: 3}
    - time: 1.1
      value: {fileID: 21300000, guid: e01142c846685d14eba2af035042472a, type: 3}
    - time: 1.1166667
      value: {fileID: 21300000, guid: 207dde798e972ea438bc77ec8286b176, type: 3}
    - time: 1.1333333
      value: {fileID: 21300000, guid: 81969aba31299694a9002a94cb2dca43, type: 3}
    - time: 1.15
      value: {fileID: 21300000, guid: 5743031501c60e1449ef3bdb80837092, type: 3}
    - time: 1.1666666
      value: {fileID: 21300000, guid: 120d9ef74629dd5429d1b322826348d6, type: 3}
    - time: 1.1833333
      value: {fileID: 21300000, guid: f406e17d19bc8054e8177d8d2cae38ac, type: 3}
    - time: 1.2
      value: {fileID: 21300000, guid: 2342f93b304e14e43a531e368d04180c, type: 3}
    - time: 1.2166667
      value: {fileID: 21300000, guid: 0b1622d3878e5a84db5a8bbee295abf4, type: 3}
    - time: 1.2333333
      value: {fileID: 21300000, guid: ca038f4b1b9379348b18124a7315fdad, type: 3}
    - time: 1.25
      value: {fileID: 21300000, guid: f4500415e248c5940a648ce8e8643c22, type: 3}
    - time: 1.2666667
      value: {fileID: 21300000, guid: 4239b00e0e409a44abe1bce09e291e41, type: 3}
    - time: 1.2833333
      value: {fileID: 21300000, guid: 3838c3c96a6d13c45b082fab27c84114, type: 3}
    - time: 1.3
      value: {fileID: 21300000, guid: 9c0efecd391ca3c43a66814bfc499dbf, type: 3}
    - time: 1.3166667
      value: {fileID: 21300000, guid: 63c380810f8a646449aab319ca2b1d41, type: 3}
    - time: 1.3333334
      value: {fileID: 21300000, guid: e8d5b0f5a10d37f42ad41296199b7403, type: 3}
    - time: 1.35
      value: {fileID: 21300000, guid: 2a2c5d89ed2292c45b7f768a61dd7f5d, type: 3}
    - time: 1.3666667
      value: {fileID: 21300000, guid: c589a81a9046a9f42b630877ad16286e, type: 3}
    - time: 1.3833333
      value: {fileID: 21300000, guid: 03f3e718330d7fd4abb2aa81193e627f, type: 3}
    - time: 1.4
      value: {fileID: 21300000, guid: f8ba46d2d45b96544b03402df4e7d5d1, type: 3}
    - time: 1.4166666
      value: {fileID: 21300000, guid: cbd117089b1ce8e4bb5414bf144ee368, type: 3}
    - time: 1.4333333
      value: {fileID: 21300000, guid: 43b1a34bc79565442ba4503629a99965, type: 3}
    - time: 1.45
      value: {fileID: 21300000, guid: 6eee3dac3236e104a9219202ef3bf767, type: 3}
    - time: 1.4666667
      value: {fileID: 21300000, guid: 644e635bcc198d044801e55406e2fff5, type: 3}
    - time: 1.4833333
      value: {fileID: 21300000, guid: 227cc63e6f441b3468657b2683f0da68, type: 3}
    - time: 1.5
      value: {fileID: 21300000, guid: b31b567edd5fe454aa12c2865ae12c89, type: 3}
    - time: 1.5166667
      value: {fileID: 21300000, guid: 2853a8d69143a8a45b2fa6700c710d0d, type: 3}
    - time: 1.5333333
      value: {fileID: 21300000, guid: 27ac668a376ee0e47ae25d1cf734e018, type: 3}
    - time: 1.55
      value: {fileID: 21300000, guid: 9e7ea15663272c54c89a250a51bf2fdc, type: 3}
    - time: 1.5666667
      value: {fileID: 21300000, guid: 37fffb3a1686ea842a26b7f7ba7b1af4, type: 3}
    - time: 1.5833334
      value: {fileID: 21300000, guid: 33d5b7e62fb04214caab726cc665e620, type: 3}
    - time: 1.6
      value: {fileID: 21300000, guid: 1ae12c63456dc164c84a0117d04956f8, type: 3}
    - time: 1.6166667
      value: {fileID: 21300000, guid: 63315edddc602e94c8dd299b4c8a78fd, type: 3}
    - time: 1.6333333
      value: {fileID: 21300000, guid: 1cac54ed7bc7cf24b8f883610e6804b5, type: 3}
    - time: 1.65
      value: {fileID: 21300000, guid: 5e502557d835f084293067c8b1cd58a4, type: 3}
    - time: 1.6666666
      value: {fileID: 21300000, guid: 75b32736e3928d84fb23d571d39abcd0, type: 3}
    - time: 1.6833333
      value: {fileID: 21300000, guid: 2526193fcfc0936448d3ead6820571d9, type: 3}
    - time: 1.7
      value: {fileID: 21300000, guid: abe5ef67e6565694082f67183cd3ef68, type: 3}
    - time: 1.7166667
      value: {fileID: 21300000, guid: 0a574b9261c78584f80fd145abfe4409, type: 3}
    - time: 1.7333333
      value: {fileID: 21300000, guid: 01561985b250982429023d8a980b9512, type: 3}
    - time: 1.75
      value: {fileID: 21300000, guid: a257c93877b5448449d82f29fd297038, type: 3}
    - time: 1.7666667
      value: {fileID: 21300000, guid: ad2c4a48ddf96aa428557387f283e590, type: 3}
    - time: 1.7833333
      value: {fileID: 21300000, guid: baecd5a6410b86e4c876886af62f33f8, type: 3}
    - time: 1.8
      value: {fileID: 21300000, guid: 42ab9b825df461c44a748efc33e7f2d9, type: 3}
    - time: 1.8166667
      value: {fileID: 21300000, guid: 32c9d859bf816cd4f90f3f19a0b09aac, type: 3}
    - time: 1.8333334
      value: {fileID: 21300000, guid: 154eac1117a7a6a41b39efa422f08e10, type: 3}
    - time: 1.85
      value: {fileID: 21300000, guid: 9f7acd9facc354347adf640b40918aa1, type: 3}
    - time: 1.8666667
      value: {fileID: 21300000, guid: 4a29b55d4d3856a439ff7e858099425f, type: 3}
    - time: 1.8833333
      value: {fileID: 21300000, guid: 9119ce16983c23d4aa031e5a8ea378ba, type: 3}
    - time: 1.9
      value: {fileID: 21300000, guid: 7565ad472d5b18e46bed881a97366cd2, type: 3}
    - time: 1.9166666
      value: {fileID: 21300000, guid: 4778b7d11ef57e64796f853256ed3873, type: 3}
    - time: 1.9333333
      value: {fileID: 21300000, guid: 21ab79c4442bc764aa6e04187e3ff43e, type: 3}
    - time: 1.95
      value: {fileID: 21300000, guid: fabec48eb64e15548be258d2e07a7cbf, type: 3}
    - time: 1.9666667
      value: {fileID: 21300000, guid: 7d1737d6ecfef504ea96c3b8587a6730, type: 3}
    - time: 1.9833333
      value: {fileID: 21300000, guid: 39b91c115e7bcc74b808e920b41b67f8, type: 3}
    - time: 2
      value: {fileID: 21300000, guid: 2f017979deb3dd14994ba798ac1d05c6, type: 3}
    - time: 2.0166667
      value: {fileID: 21300000, guid: f673c8f0342f76d4ba24a2f5cc74a3cf, type: 3}
    - time: 2.0333333
      value: {fileID: 21300000, guid: 01217b5c25e30014e9a14bccdc1997fb, type: 3}
    - time: 2.05
      value: {fileID: 21300000, guid: 30dab7119b22a174ea76f106101f3a4e, type: 3}
    - time: 2.0666666
      value: {fileID: 21300000, guid: 81c2c14474dbc884d81e47496b3e9314, type: 3}
    - time: 2.0833333
      value: {fileID: 21300000, guid: 789c773bec6796f4db93963a744df26e, type: 3}
    - time: 2.1
      value: {fileID: 21300000, guid: 9ee5cae1497d28c4fa143e1cdeaf2ad4, type: 3}
    - time: 2.1166666
      value: {fileID: 21300000, guid: 66fe5cae1cb58484ca20804db6f01c9d, type: 3}
    - time: 2.1333334
      value: {fileID: 21300000, guid: 5db0a2136307d8a4dbfa7d58d45ec6e6, type: 3}
    - time: 2.15
      value: {fileID: 21300000, guid: d106b41900d63d345bcefde1b0660016, type: 3}
    - time: 2.1666667
      value: {fileID: 21300000, guid: 3f110f35a6fd3944b9a52dbc47590070, type: 3}
    - time: 2.1833334
      value: {fileID: 21300000, guid: b75a5551b7639474bb93cef86bfef167, type: 3}
    - time: 2.2
      value: {fileID: 21300000, guid: 6bcb768daa4d61747bd4b8398aaf22a0, type: 3}
    - time: 2.2166667
      value: {fileID: 21300000, guid: 8c161e4e91278ff4b9e85c486a8df749, type: 3}
    - time: 2.2333333
      value: {fileID: 21300000, guid: 3bfca1746a9876241928f2c39b2289b0, type: 3}
    - time: 2.25
      value: {fileID: 21300000, guid: f3d11cbb02eff9b4b948184393262af6, type: 3}
    - time: 2.2666667
      value: {fileID: 21300000, guid: c70ff78c544191a458018e4f33a7914a, type: 3}
    - time: 2.2833333
      value: {fileID: 21300000, guid: ac453e04dcabe684e9993ceeb3bf6fbf, type: 3}
    - time: 2.3
      value: {fileID: 21300000, guid: b29c9402d5d54ad4690e5d584bf36717, type: 3}
    - time: 2.3166666
      value: {fileID: 21300000, guid: 42b6e65e833a7384d9c402324080335c, type: 3}
    - time: 2.3333333
      value: {fileID: 21300000, guid: c62be7b8b26f9eb4fbe70637b344786b, type: 3}
    - time: 2.35
      value: {fileID: 21300000, guid: 9ead90a89f657a145813e96b30c0d67d, type: 3}
    - time: 2.3666666
      value: {fileID: 21300000, guid: 62e4105b1d360ff4fa4801fdd474f2f6, type: 3}
    - time: 2.3833334
      value: {fileID: 21300000, guid: ec00fd3f359a3144b8c5dd218900ebda, type: 3}
    - time: 2.4
      value: {fileID: 21300000, guid: 91d7d3d19c1a1f2418f53375985b7323, type: 3}
    - time: 2.4166667
      value: {fileID: 21300000, guid: 38c3d847b78d8c04489030ad9f135d1c, type: 3}
    - time: 2.4333334
      value: {fileID: 21300000, guid: 37c83f5ba504ba14e873d521301f0cfc, type: 3}
    - time: 2.45
      value: {fileID: 21300000, guid: a6df8bb60a1cae94f9b4b6b0ec131a75, type: 3}
    - time: 2.4666667
      value: {fileID: 21300000, guid: 3e53ae45aae02aa40bf899a329b7ff42, type: 3}
    - time: 2.4833333
      value: {fileID: 21300000, guid: d260f019ac6c88440a4e5bd293f9a10a, type: 3}
    - time: 2.5
      value: {fileID: 21300000, guid: cd4f8ad5ece70e247bb370ddb227c146, type: 3}
    - time: 2.5166667
      value: {fileID: 21300000, guid: 06c5427f8acbe254eb7912a26d1f100a, type: 3}
    - time: 2.5333333
      value: {fileID: 21300000, guid: 24d5287b18f9a014ba7bb5c320c2e3ea, type: 3}
    - time: 2.55
      value: {fileID: 21300000, guid: 5c08298004fff8445a77e9a496159328, type: 3}
    - time: 2.5666666
      value: {fileID: 21300000, guid: 7fe93d1d2f043ed42a576c177683ec01, type: 3}
    - time: 2.5833333
      value: {fileID: 21300000, guid: a97dcc996c1491945bfc0d2175b86dc5, type: 3}
    - time: 2.6
      value: {fileID: 21300000, guid: 6b32d382f1510f74dace42737977f35a, type: 3}
    - time: 2.6166666
      value: {fileID: 21300000, guid: e1486ae3377691a49b94b0a819cec88d, type: 3}
    - time: 2.6333334
      value: {fileID: 21300000, guid: b3c358b485914fa4488ce27caec2b64d, type: 3}
    - time: 2.65
      value: {fileID: 21300000, guid: 63338f7532eafdf46a49b2c7166fa9ee, type: 3}
    - time: 2.6666667
      value: {fileID: 21300000, guid: 55f17157a978cf043bede46ee52ce0ee, type: 3}
    - time: 2.6833334
      value: {fileID: 21300000, guid: 788d0359c39ae6d4e808c594b64c950c, type: 3}
    - time: 2.7
      value: {fileID: 21300000, guid: 28ce71cbc7b0ada44a4eb9acb8ab3298, type: 3}
    - time: 2.7166667
      value: {fileID: 21300000, guid: 1c80e1a7fdef5f44a9afaccba074bb88, type: 3}
    - time: 2.7333333
      value: {fileID: 21300000, guid: a566cb0358202c0499e212f36c21ceea, type: 3}
    - time: 2.75
      value: {fileID: 21300000, guid: a41e2fa061e73f54a962be62da3f3700, type: 3}
    - time: 2.7666667
      value: {fileID: 21300000, guid: 4e3ffc15e57b3c14998ba8e78410fe33, type: 3}
    - time: 2.7833333
      value: {fileID: 21300000, guid: a2ee5c0483201a342a222433e65fb402, type: 3}
    - time: 2.8
      value: {fileID: 21300000, guid: 6bf60036feca65f448c8cd3a5ed71b8a, type: 3}
    - time: 2.8166666
      value: {fileID: 21300000, guid: c329619351e0cc841819812cfe232b59, type: 3}
    - time: 2.8333333
      value: {fileID: 21300000, guid: 3fb183086a337e04da370ccfa82f2b78, type: 3}
    - time: 2.85
      value: {fileID: 21300000, guid: d841fa1a2977b2345a8cca257e4f2278, type: 3}
    - time: 2.8666666
      value: {fileID: 21300000, guid: be5c4e61ca650f345b60b94f3b4d58e1, type: 3}
    - time: 2.8833334
      value: {fileID: 21300000, guid: b871dd654dedae348b3b77dfb366fc4a, type: 3}
    - time: 2.9
      value: {fileID: 21300000, guid: f34bed07761ba174eac8223e79e4a469, type: 3}
    - time: 2.9166667
      value: {fileID: 21300000, guid: 5bfaea25509c4bd4184ee3e0564bc5bd, type: 3}
    - time: 2.9333334
      value: {fileID: 21300000, guid: 919c660296363254d8976789297679d0, type: 3}
    - time: 2.95
      value: {fileID: 21300000, guid: 7044c175c1e20a24f80e930b80ad4623, type: 3}
    - time: 2.9666667
      value: {fileID: 21300000, guid: 250c121e160f21b4ba2a47aa85f2e02c, type: 3}
    - time: 2.9833333
      value: {fileID: 21300000, guid: 553c183f1ec9da94aa8c16a634707458, type: 3}
    - time: 3
      value: {fileID: 21300000, guid: a7cbf492dc7f5364aace6ae8cdf8132a, type: 3}
    - time: 3.0166667
      value: {fileID: 21300000, guid: 0a6d137002a3aef41b9b93e0d5098007, type: 3}
    - time: 3.0333333
      value: {fileID: 21300000, guid: 0d69aa9ae79da89409c48075d3591c6e, type: 3}
    - time: 3.05
      value: {fileID: 21300000, guid: 5b06f2f0c862c6a44bd464a1eed64440, type: 3}
    - time: 3.0666666
      value: {fileID: 21300000, guid: 92aa63399d0f9a44aa85e39b2d44636c, type: 3}
    - time: 3.0833333
      value: {fileID: 21300000, guid: 6b03d6c0e6eb6584bb3770a47a0849e2, type: 3}
    - time: 3.1
      value: {fileID: 21300000, guid: e9276c02349f64441bca7a1b18267c57, type: 3}
    - time: 3.1166666
      value: {fileID: 21300000, guid: 0542394370c0f304c940480385c50303, type: 3}
    - time: 3.1333334
      value: {fileID: 21300000, guid: 169f3c711a3e49d43a33bddaac8ae40d, type: 3}
    - time: 3.15
      value: {fileID: 21300000, guid: c573bd1fca8e12f4f8b717877d30028d, type: 3}
    - time: 3.1666667
      value: {fileID: 21300000, guid: 590786b635dbe2543b9caa8180730dca, type: 3}
    - time: 3.1833334
      value: {fileID: 21300000, guid: cd7e0e2c9f7850b4e86ad1ef186f5b45, type: 3}
    - time: 3.2
      value: {fileID: 21300000, guid: 279ade59f889cd84c90931af4c7726ed, type: 3}
    - time: 3.2166667
      value: {fileID: 21300000, guid: 2353cc2cde31be64eb73109cac318755, type: 3}
    - time: 3.2333333
      value: {fileID: 21300000, guid: 2f618f52bf5d30e49aa7851886565456, type: 3}
    - time: 3.25
      value: {fileID: 21300000, guid: a8ef5ef228158ba4389ee267bca9107a, type: 3}
    - time: 3.2666667
      value: {fileID: 21300000, guid: 7e3b2ebe89535bf409bade9d739b40e7, type: 3}
    - time: 3.2833333
      value: {fileID: 21300000, guid: 6e7105e0dc706d84b982967fd2dedf8d, type: 3}
    - time: 3.3
      value: {fileID: 21300000, guid: 591f6097d9b44f5429c04c9cf757d216, type: 3}
    - time: 3.3166666
      value: {fileID: 21300000, guid: 6311be845e12a764999749caaa5b12af, type: 3}
    - time: 3.3333333
      value: {fileID: 21300000, guid: fae0b42121147b54f8eefce1175b0e27, type: 3}
    - time: 3.35
      value: {fileID: 21300000, guid: 6711ce03dae5f994da36051b1cccaf2b, type: 3}
    - time: 3.3666666
      value: {fileID: 21300000, guid: 87577e7f3604ae64e90f941ec54c1102, type: 3}
    - time: 3.3833334
      value: {fileID: 21300000, guid: 2433eb1476a14584e9bd1045a5957117, type: 3}
    - time: 3.4
      value: {fileID: 21300000, guid: 70346e95583377043828226b80a389d9, type: 3}
    - time: 3.4166667
      value: {fileID: 21300000, guid: d491e20cad7ea14449a348cb639a5c33, type: 3}
    - time: 3.4333334
      value: {fileID: 21300000, guid: 6cc33e4c038989043ae1322dcc8e9acc, type: 3}
    - time: 3.45
      value: {fileID: 21300000, guid: dfb37e76f8a829c44893a18b45758d1e, type: 3}
    - time: 3.4666667
      value: {fileID: 21300000, guid: 8c925e7c081fbb64aafb0be074bd358c, type: 3}
    - time: 3.4833333
      value: {fileID: 21300000, guid: caed3d11ca8a0524ebb88e2456a61c67, type: 3}
    - time: 3.5
      value: {fileID: 21300000, guid: d4dc3a4510ec0034e94881767cc22e52, type: 3}
    - time: 3.5166667
      value: {fileID: 21300000, guid: 8afba0cb8049a30448bfbee0994139e7, type: 3}
    - time: 3.5333333
      value: {fileID: 21300000, guid: 839ebbe6886127c4496a222986339eb9, type: 3}
    - time: 3.55
      value: {fileID: 21300000, guid: e1fd5329b3809764697bab684fdbf5a9, type: 3}
    - time: 3.5666666
      value: {fileID: 21300000, guid: 6b6a05327642af8408b85df2353ddfee, type: 3}
    - time: 3.5833333
      value: {fileID: 21300000, guid: b6e7945030c3d6c4f9953fac8a3a9159, type: 3}
    - time: 3.6
      value: {fileID: 21300000, guid: d50e16d4c6ccdf6479da43d80b717bd5, type: 3}
    - time: 3.6166666
      value: {fileID: 21300000, guid: 8fd09334f66b7d946890fb43c97b63d5, type: 3}
    - time: 3.6333334
      value: {fileID: 21300000, guid: 811925e43ca26ae4ba375207d448913c, type: 3}
    - time: 3.65
      value: {fileID: 21300000, guid: 518a38654e98eed4581dc1dbe10b073e, type: 3}
    - time: 3.6666667
      value: {fileID: 21300000, guid: 3a5904cd09b7bff4c86b9b62a49cfaa9, type: 3}
    - time: 3.6833334
      value: {fileID: 21300000, guid: 433f235bebb811b469b1b79b52b58a38, type: 3}
    - time: 3.7
      value: {fileID: 21300000, guid: 70fe55e9369a046439ef687e161e20b3, type: 3}
    - time: 3.7166667
      value: {fileID: 21300000, guid: 2b8e4070f6910904a9894f3b68ff5e14, type: 3}
    - time: 3.7333333
      value: {fileID: 21300000, guid: 94ef530fcee6aba45835988bc7d7b184, type: 3}
    - time: 3.75
      value: {fileID: 21300000, guid: 17f452df633c44544b03325406de0cd4, type: 3}
    - time: 3.7666667
      value: {fileID: 21300000, guid: e0cbc1b978f2f9b428f71e06bd4fcd8c, type: 3}
    - time: 3.7833333
      value: {fileID: 21300000, guid: a56194500a1557c4f8acedae7c68f658, type: 3}
    - time: 3.8
      value: {fileID: 21300000, guid: 884544f5ca7311443af57e008f0912f6, type: 3}
    - time: 3.8166666
      value: {fileID: 21300000, guid: ebf32484e35a01d4380b74444e40169a, type: 3}
    - time: 3.8333333
      value: {fileID: 21300000, guid: 5e23fb1ed5e36ce4b97c7e34caf67ddb, type: 3}
    - time: 3.85
      value: {fileID: 21300000, guid: 2cf6440ce5bdbcc43ac901cd7775c3c8, type: 3}
    - time: 3.8666666
      value: {fileID: 21300000, guid: de82974f48edec24c9ef419adb38a488, type: 3}
    - time: 3.8833334
      value: {fileID: 21300000, guid: f2c903d9e10014c45892d634699457aa, type: 3}
    - time: 3.9
      value: {fileID: 21300000, guid: 91c6b87c9375966469c30fa8c208c466, type: 3}
    - time: 3.9166667
      value: {fileID: 21300000, guid: c677e054cc39280478844eaf3a4c1d4d, type: 3}
    - time: 3.9333334
      value: {fileID: 21300000, guid: 29d30e399f3329e40a403c9f0f7f9c00, type: 3}
    - time: 3.95
      value: {fileID: 21300000, guid: 8f3e55169e9149e4c9abc49f115a8118, type: 3}
    - time: 3.9666667
      value: {fileID: 21300000, guid: 928aabfca23e77642af5a97c98b28a2d, type: 3}
    - time: 3.9833333
      value: {fileID: 21300000, guid: cac675004d4b11f4eb2eca1b68135e47, type: 3}
    - time: 4
      value: {fileID: 21300000, guid: 5d278960cd88b7c4f991a35e495f69f1, type: 3}
    - time: 4.016667
      value: {fileID: 21300000, guid: daec5b66f3c997e4d9350a186bebb50b, type: 3}
    - time: 4.0333333
      value: {fileID: 21300000, guid: ddc91e3d2d22dea458955fe6698754b6, type: 3}
    - time: 4.05
      value: {fileID: 21300000, guid: 69a756eca6d0ba14098a29a39f8c4718, type: 3}
    - time: 4.0666666
      value: {fileID: 21300000, guid: b44ca6eabfc2fd642af16a135d4ec632, type: 3}
    - time: 4.0833335
      value: {fileID: 21300000, guid: 49dee03ccc941fc4580a3b934a1744e1, type: 3}
    - time: 4.1
      value: {fileID: 21300000, guid: b792b57dd3d1cb14e85a1653a58975a3, type: 3}
    - time: 4.116667
      value: {fileID: 21300000, guid: cb6fb7064bd47f0498e04fe5a5ff2984, type: 3}
    - time: 4.133333
      value: {fileID: 21300000, guid: ead14ca7e51a1dd4e8abb2a9f753f281, type: 3}
    - time: 4.15
      value: {fileID: 21300000, guid: 70d2ff860e35c0040a79a2e284e6cb5a, type: 3}
    - time: 4.1666665
      value: {fileID: 21300000, guid: 2352cb02c9603c14faa00ce6facce3f3, type: 3}
    - time: 4.1833334
      value: {fileID: 21300000, guid: 75b9ac9b689a3ee41a08555b70787769, type: 3}
    - time: 4.2
      value: {fileID: 21300000, guid: 6985be740d23dab45a9e18c83fd210b7, type: 3}
    - time: 4.2166667
      value: {fileID: 21300000, guid: b4ec24c07c4b03c4cb56e079bbababa1, type: 3}
    - time: 4.233333
      value: {fileID: 21300000, guid: d80834961eef9ca44b28ac9dc03decd6, type: 3}
    - time: 4.25
      value: {fileID: 21300000, guid: c32b046fe059b084aa0b4bab142efb12, type: 3}
    - time: 4.266667
      value: {fileID: 21300000, guid: 6844d7eef21db964db8d48f3145d356c, type: 3}
    - time: 4.2833333
      value: {fileID: 21300000, guid: d6937ad5d6c8bd84aa6f2fd417677644, type: 3}
    - time: 4.3
      value: {fileID: 21300000, guid: eb384888751eae943a559e2f7701fe94, type: 3}
    - time: 4.3166666
      value: {fileID: 21300000, guid: 86e25279753489f4eb795651d5644b8c, type: 3}
    - time: 4.3333335
      value: {fileID: 21300000, guid: 6b8ecc67fcd27544c9611f97a5c0d87c, type: 3}
    - time: 4.35
      value: {fileID: 21300000, guid: bd979dd6daf5b0e459965e193bb936a6, type: 3}
    - time: 4.366667
      value: {fileID: 21300000, guid: 1defcea02f02ec84b82e028fddddf820, type: 3}
    - time: 4.383333
      value: {fileID: 21300000, guid: 76167c80f3877954680bf9d58be8ea19, type: 3}
    - time: 4.4
      value: {fileID: 21300000, guid: 946e56f1c6bbd944b9050c2cb300003a, type: 3}
    - time: 4.4166665
      value: {fileID: 21300000, guid: a6c21ce3c68115b4c92f689fd98422b7, type: 3}
    - time: 4.4333334
      value: {fileID: 21300000, guid: cdf9f339356930d4dbcb9ddfa6552988, type: 3}
    - time: 4.45
      value: {fileID: 21300000, guid: a654f60cb45c58a418e3cd59b5c78af9, type: 3}
    - time: 4.4666667
      value: {fileID: 21300000, guid: 589425cb5369a194ba80db1a113a0679, type: 3}
    - time: 4.483333
      value: {fileID: 21300000, guid: 4275ca42bc433144aa8b3a76dadc57f8, type: 3}
    - time: 4.5
      value: {fileID: 21300000, guid: df996f59dc8bfa140a544cc505bbeea4, type: 3}
    - time: 4.516667
      value: {fileID: 21300000, guid: fb334f6199fab354186a157a2fb5659b, type: 3}
    - time: 4.5333333
      value: {fileID: 21300000, guid: b4fa1bb3ebb8a894eb5176bce372d71e, type: 3}
    - time: 4.55
      value: {fileID: 21300000, guid: 4a480f74d93bebb41a545d4b91b03138, type: 3}
    - time: 4.5666666
      value: {fileID: 21300000, guid: 7d3683c02b3810842881c9b3686dee1a, type: 3}
    - time: 4.5833335
      value: {fileID: 21300000, guid: 6df6d27b2da2e304e87f5f10c81680ec, type: 3}
    - time: 4.6
      value: {fileID: 21300000, guid: 35dbe263b213a184991f9b7cce38d9fb, type: 3}
    - time: 4.616667
      value: {fileID: 21300000, guid: 4c967fbb8de82584e82162a242d2b1b2, type: 3}
    - time: 4.633333
      value: {fileID: 21300000, guid: 425b96b5f52f060419ab5e6a4bd66935, type: 3}
    - time: 4.65
      value: {fileID: 21300000, guid: 95ee5976d718ea34d85af3df7c7994dc, type: 3}
    - time: 4.6666665
      value: {fileID: 21300000, guid: 50996341508b4aa4cb28f6cf2499b599, type: 3}
    - time: 4.6833334
      value: {fileID: 21300000, guid: 2e8958af3fa880046923c93760d044d2, type: 3}
    - time: 4.7
      value: {fileID: 21300000, guid: 6211384c46ef3cc4cb98df9e524b6bd5, type: 3}
    - time: 4.7166667
      value: {fileID: 21300000, guid: 79b194ed999821b4ba2bded8d69b430c, type: 3}
    - time: 4.733333
      value: {fileID: 21300000, guid: 41df678622050264abca947c2e0a5a6b, type: 3}
    - time: 4.75
      value: {fileID: 21300000, guid: ca104ae64e378944fa2b75b0a8672a34, type: 3}
    - time: 4.766667
      value: {fileID: 21300000, guid: 2964111904fbe5144b33e11d3cd16e22, type: 3}
    - time: 4.7833333
      value: {fileID: 21300000, guid: ff29e0c8b5c5e074b81d654e65d0db64, type: 3}
    - time: 4.8
      value: {fileID: 21300000, guid: 31e39ec1bacefc6409dd6771fe475c73, type: 3}
    - time: 4.8166666
      value: {fileID: 21300000, guid: ad1d60d279ed1ac49b1b23334ecb6f76, type: 3}
    - time: 4.8333335
      value: {fileID: 21300000, guid: 828b15cc55e695644814bbe6ba727b4d, type: 3}
    - time: 4.85
      value: {fileID: 21300000, guid: 6213daf4d5f5cd34b96a40526b88bcbb, type: 3}
    - time: 4.866667
      value: {fileID: 21300000, guid: 9641f1718868b054fa0c6575e0037c9d, type: 3}
    - time: 4.883333
      value: {fileID: 21300000, guid: 4f22ac79437d23f44af0bc5e5fbf8e53, type: 3}
    - time: 4.9
      value: {fileID: 21300000, guid: d245833529a5ef74d9a212a48384bad1, type: 3}
    - time: 4.9166665
      value: {fileID: 21300000, guid: c1495553cd9ca0e4abe8578400b9b5b5, type: 3}
    - time: 4.9333334
      value: {fileID: 21300000, guid: 47563c16f68b6cf499ba995b27a06b12, type: 3}
    - time: 4.95
      value: {fileID: 21300000, guid: f34ff9cdeb0544441b7e3ecbf309e455, type: 3}
    - time: 4.9666667
      value: {fileID: 21300000, guid: 7fb0c2c168767b94d9064d41789c5206, type: 3}
    - time: 4.983333
      value: {fileID: 21300000, guid: 15db6781b557fc64ab56cd04b401445f, type: 3}
    - time: 6.15
      value: {fileID: 21300000, guid: 15db6781b557fc64ab56cd04b401445f, type: 3}
    attribute: m_Sprite
    path: Image
    classID: 114
    script: {fileID: 11500000, guid: fe87c0e1cc204ed48ad3b37840f39efc, type: 3}
  m_SampleRate: 60
  m_WrapMode: 0
  m_Bounds:
    m_Center: {x: 0, y: 0, z: 0}
    m_Extent: {x: 0, y: 0, z: 0}
  m_ClipBindingConstant:
    genericBindings:
    - serializedVersion: 2
      path: 83635035
      attribute: 2015549526
      script: {fileID: 11500000, guid: fe87c0e1cc204ed48ad3b37840f39efc, type: 3}
      typeID: 114
      customType: 0
      isPPtrCurve: 1
    pptrCurveMapping:
    - {fileID: 21300000, guid: 7487021f35949c442b7b6f132fad1bf4, type: 3}
    - {fileID: 21300000, guid: 5eff705e99a6d4b4082b35f58d340b02, type: 3}
    - {fileID: 21300000, guid: 692b8f564fbceea49b78950eab55c461, type: 3}
    - {fileID: 21300000, guid: 2165a28d33d828f4c8efde969727057e, type: 3}
    - {fileID: 21300000, guid: 8d4df498e2d04b349a2be7d521adbbc8, type: 3}
    - {fileID: 21300000, guid: fec1f6fa9908d43409edaee613710622, type: 3}
    - {fileID: 21300000, guid: 6e38a41d3372c5a4b99f3630d1617317, type: 3}
    - {fileID: 21300000, guid: 068e731b810ffdc4eb19f767af597610, type: 3}
    - {fileID: 21300000, guid: df8b1aa1326fad146a7de51e02a13b7d, type: 3}
    - {fileID: 21300000, guid: 2d510c180c741d44e900e57749f257cf, type: 3}
    - {fileID: 21300000, guid: ff1bdc1c1bedeb04ca27897807a7f925, type: 3}
    - {fileID: 21300000, guid: 83ff79b269cb48d4eb6d42a4e0061bb0, type: 3}
    - {fileID: 21300000, guid: d737c3320aace7941b50b632fc7c0afd, type: 3}
    - {fileID: 21300000, guid: 5698119f22013674ab956edea1602c80, type: 3}
    - {fileID: 21300000, guid: 56fd46d2cf3a74248a908aea088ea95c, type: 3}
    - {fileID: 21300000, guid: e0c2824cb61240042b2896d296f506cd, type: 3}
    - {fileID: 21300000, guid: e30e1172d55d1684fa995e97047bfd88, type: 3}
    - {fileID: 21300000, guid: 9d5fa98c00f182b4f9b01cdd513f427b, type: 3}
    - {fileID: 21300000, guid: da11f562760c2f149afdf2fc43bd0b70, type: 3}
    - {fileID: 21300000, guid: eb51a4d6a9a8b494682215ea2e89268d, type: 3}
    - {fileID: 21300000, guid: 6fb0e7337743ac141b38a5881d6932f8, type: 3}
    - {fileID: 21300000, guid: 0027f1f13eceac74d98053a39aa68dd8, type: 3}
    - {fileID: 21300000, guid: 6eac89303f2b43c4eade6cba7c671d0f, type: 3}
    - {fileID: 21300000, guid: 1e7dd11089c6fd84f97fcfe34dc2d578, type: 3}
    - {fileID: 21300000, guid: 5ebc249bafde2bf40a19099990ebdeb3, type: 3}
    - {fileID: 21300000, guid: d9858c4df13baf644a76dd5c84f66541, type: 3}
    - {fileID: 21300000, guid: 55798872f58b52a42a97246214c74e3f, type: 3}
    - {fileID: 21300000, guid: da8b9c98c9102dd4e9d6a1947e0ce6ed, type: 3}
    - {fileID: 21300000, guid: d763d82e5d0056e468a9750fda1c908a, type: 3}
    - {fileID: 21300000, guid: 283cccaba3c953f478d595f2ddbe6839, type: 3}
    - {fileID: 21300000, guid: 5da8a5fb30ac6cb4caab3e3210371f6f, type: 3}
    - {fileID: 21300000, guid: 5725691a98bef2a4f8686a2bafca5a0c, type: 3}
    - {fileID: 21300000, guid: a2a0e1ab299a1c74abe9eecda226c5f8, type: 3}
    - {fileID: 21300000, guid: 637e18b510c3e164a98610232e7589b0, type: 3}
    - {fileID: 21300000, guid: 0f7738335e4dff044a5550077d784bfd, type: 3}
    - {fileID: 21300000, guid: 83d98cf69608f4d4b87e0149c0d2ef17, type: 3}
    - {fileID: 21300000, guid: adcbd8967df5ba641bb5b76952141afa, type: 3}
    - {fileID: 21300000, guid: a18de0edd7bf0ff4d96cc8811e719933, type: 3}
    - {fileID: 21300000, guid: a1dcb617dffcb2644b4d890a2e08d632, type: 3}
    - {fileID: 21300000, guid: fe28b3d34df91a843aa80e488346ca89, type: 3}
    - {fileID: 21300000, guid: 3717180a3da297543bd8fd02ba83c5dc, type: 3}
    - {fileID: 21300000, guid: dfbdcd28b5b83584394a1e0b9da59903, type: 3}
    - {fileID: 21300000, guid: 440129f50a3f9584f91fe2fdb6ac8e51, type: 3}
    - {fileID: 21300000, guid: 9350484de560d6549afd5f730052fd32, type: 3}
    - {fileID: 21300000, guid: 0f5d54d0e6e983e4c8a6bdac79be3800, type: 3}
    - {fileID: 21300000, guid: 217c005d6bfc42f4c9f22fa4a47bd8ac, type: 3}
    - {fileID: 21300000, guid: 75cdedd30e5719945bcfd57206643034, type: 3}
    - {fileID: 21300000, guid: ad9cda031711df94181c95b24613058b, type: 3}
    - {fileID: 21300000, guid: 4247e7ab44de29044b2d575a38545ba2, type: 3}
    - {fileID: 21300000, guid: 0d3a79af56f1ecd48a261a4d0480421d, type: 3}
    - {fileID: 21300000, guid: 38323ebd211ee4146a0afeed98ac4922, type: 3}
    - {fileID: 21300000, guid: bd8c810dc75081645bdfbd6a87ff6239, type: 3}
    - {fileID: 21300000, guid: bb5f5cc4a3f73b6488b30d1444769fef, type: 3}
    - {fileID: 21300000, guid: c39de7bab298acb4bb9dad86ca0c201b, type: 3}
    - {fileID: 21300000, guid: 2dfddb9423ebd1749b40af8b5dc40625, type: 3}
    - {fileID: 21300000, guid: 18ce33fd6e89cb84599a27c89574453f, type: 3}
    - {fileID: 21300000, guid: da28a3c1c1a16d644a218c8bf9771a9a, type: 3}
    - {fileID: 21300000, guid: 810db8c9139a2744dabd37e53268ca5b, type: 3}
    - {fileID: 21300000, guid: 8da06c2f0b3533a4d9b525f2c20a2739, type: 3}
    - {fileID: 21300000, guid: 553c10a30889b0842860b55ac885180e, type: 3}
    - {fileID: 21300000, guid: d0f934def2c910a419844af27358f638, type: 3}
    - {fileID: 21300000, guid: b7086c0e554962545aa0e3e7b0938f46, type: 3}
    - {fileID: 21300000, guid: 7804ca4fb560dcf498219782ff4d7101, type: 3}
    - {fileID: 21300000, guid: 41a628feb3ba13a4fa4d2c85056e60ce, type: 3}
    - {fileID: 21300000, guid: 7c64a8d1ef77af44aab4db30533b4c8b, type: 3}
    - {fileID: 21300000, guid: 64eeec8a63c7a704e87fd78be8eb63e4, type: 3}
    - {fileID: 21300000, guid: e01142c846685d14eba2af035042472a, type: 3}
    - {fileID: 21300000, guid: 207dde798e972ea438bc77ec8286b176, type: 3}
    - {fileID: 21300000, guid: 81969aba31299694a9002a94cb2dca43, type: 3}
    - {fileID: 21300000, guid: 5743031501c60e1449ef3bdb80837092, type: 3}
    - {fileID: 21300000, guid: 120d9ef74629dd5429d1b322826348d6, type: 3}
    - {fileID: 21300000, guid: f406e17d19bc8054e8177d8d2cae38ac, type: 3}
    - {fileID: 21300000, guid: 2342f93b304e14e43a531e368d04180c, type: 3}
    - {fileID: 21300000, guid: 0b1622d3878e5a84db5a8bbee295abf4, type: 3}
    - {fileID: 21300000, guid: ca038f4b1b9379348b18124a7315fdad, type: 3}
    - {fileID: 21300000, guid: f4500415e248c5940a648ce8e8643c22, type: 3}
    - {fileID: 21300000, guid: 4239b00e0e409a44abe1bce09e291e41, type: 3}
    - {fileID: 21300000, guid: 3838c3c96a6d13c45b082fab27c84114, type: 3}
    - {fileID: 21300000, guid: 9c0efecd391ca3c43a66814bfc499dbf, type: 3}
    - {fileID: 21300000, guid: 63c380810f8a646449aab319ca2b1d41, type: 3}
    - {fileID: 21300000, guid: e8d5b0f5a10d37f42ad41296199b7403, type: 3}
    - {fileID: 21300000, guid: 2a2c5d89ed2292c45b7f768a61dd7f5d, type: 3}
    - {fileID: 21300000, guid: c589a81a9046a9f42b630877ad16286e, type: 3}
    - {fileID: 21300000, guid: 03f3e718330d7fd4abb2aa81193e627f, type: 3}
    - {fileID: 21300000, guid: f8ba46d2d45b96544b03402df4e7d5d1, type: 3}
    - {fileID: 21300000, guid: cbd117089b1ce8e4bb5414bf144ee368, type: 3}
    - {fileID: 21300000, guid: 43b1a34bc79565442ba4503629a99965, type: 3}
    - {fileID: 21300000, guid: 6eee3dac3236e104a9219202ef3bf767, type: 3}
    - {fileID: 21300000, guid: 644e635bcc198d044801e55406e2fff5, type: 3}
    - {fileID: 21300000, guid: 227cc63e6f441b3468657b2683f0da68, type: 3}
    - {fileID: 21300000, guid: b31b567edd5fe454aa12c2865ae12c89, type: 3}
    - {fileID: 21300000, guid: 2853a8d69143a8a45b2fa6700c710d0d, type: 3}
    - {fileID: 21300000, guid: 27ac668a376ee0e47ae25d1cf734e018, type: 3}
    - {fileID: 21300000, guid: 9e7ea15663272c54c89a250a51bf2fdc, type: 3}
    - {fileID: 21300000, guid: 37fffb3a1686ea842a26b7f7ba7b1af4, type: 3}
    - {fileID: 21300000, guid: 33d5b7e62fb04214caab726cc665e620, type: 3}
    - {fileID: 21300000, guid: 1ae12c63456dc164c84a0117d04956f8, type: 3}
    - {fileID: 21300000, guid: 63315edddc602e94c8dd299b4c8a78fd, type: 3}
    - {fileID: 21300000, guid: 1cac54ed7bc7cf24b8f883610e6804b5, type: 3}
    - {fileID: 21300000, guid: 5e502557d835f084293067c8b1cd58a4, type: 3}
    - {fileID: 21300000, guid: 75b32736e3928d84fb23d571d39abcd0, type: 3}
    - {fileID: 21300000, guid: 2526193fcfc0936448d3ead6820571d9, type: 3}
    - {fileID: 21300000, guid: abe5ef67e6565694082f67183cd3ef68, type: 3}
    - {fileID: 21300000, guid: 0a574b9261c78584f80fd145abfe4409, type: 3}
    - {fileID: 21300000, guid: 01561985b250982429023d8a980b9512, type: 3}
    - {fileID: 21300000, guid: a257c93877b5448449d82f29fd297038, type: 3}
    - {fileID: 21300000, guid: ad2c4a48ddf96aa428557387f283e590, type: 3}
    - {fileID: 21300000, guid: baecd5a6410b86e4c876886af62f33f8, type: 3}
    - {fileID: 21300000, guid: 42ab9b825df461c44a748efc33e7f2d9, type: 3}
    - {fileID: 21300000, guid: 32c9d859bf816cd4f90f3f19a0b09aac, type: 3}
    - {fileID: 21300000, guid: 154eac1117a7a6a41b39efa422f08e10, type: 3}
    - {fileID: 21300000, guid: 9f7acd9facc354347adf640b40918aa1, type: 3}
    - {fileID: 21300000, guid: 4a29b55d4d3856a439ff7e858099425f, type: 3}
    - {fileID: 21300000, guid: 9119ce16983c23d4aa031e5a8ea378ba, type: 3}
    - {fileID: 21300000, guid: 7565ad472d5b18e46bed881a97366cd2, type: 3}
    - {fileID: 21300000, guid: 4778b7d11ef57e64796f853256ed3873, type: 3}
    - {fileID: 21300000, guid: 21ab79c4442bc764aa6e04187e3ff43e, type: 3}
    - {fileID: 21300000, guid: fabec48eb64e15548be258d2e07a7cbf, type: 3}
    - {fileID: 21300000, guid: 7d1737d6ecfef504ea96c3b8587a6730, type: 3}
    - {fileID: 21300000, guid: 39b91c115e7bcc74b808e920b41b67f8, type: 3}
    - {fileID: 21300000, guid: 2f017979deb3dd14994ba798ac1d05c6, type: 3}
    - {fileID: 21300000, guid: f673c8f0342f76d4ba24a2f5cc74a3cf, type: 3}
    - {fileID: 21300000, guid: 01217b5c25e30014e9a14bccdc1997fb, type: 3}
    - {fileID: 21300000, guid: 30dab7119b22a174ea76f106101f3a4e, type: 3}
    - {fileID: 21300000, guid: 81c2c14474dbc884d81e47496b3e9314, type: 3}
    - {fileID: 21300000, guid: 789c773bec6796f4db93963a744df26e, type: 3}
    - {fileID: 21300000, guid: 9ee5cae1497d28c4fa143e1cdeaf2ad4, type: 3}
    - {fileID: 21300000, guid: 66fe5cae1cb58484ca20804db6f01c9d, type: 3}
    - {fileID: 21300000, guid: 5db0a2136307d8a4dbfa7d58d45ec6e6, type: 3}
    - {fileID: 21300000, guid: d106b41900d63d345bcefde1b0660016, type: 3}
    - {fileID: 21300000, guid: 3f110f35a6fd3944b9a52dbc47590070, type: 3}
    - {fileID: 21300000, guid: b75a5551b7639474bb93cef86bfef167, type: 3}
    - {fileID: 21300000, guid: 6bcb768daa4d61747bd4b8398aaf22a0, type: 3}
    - {fileID: 21300000, guid: 8c161e4e91278ff4b9e85c486a8df749, type: 3}
    - {fileID: 21300000, guid: 3bfca1746a9876241928f2c39b2289b0, type: 3}
    - {fileID: 21300000, guid: f3d11cbb02eff9b4b948184393262af6, type: 3}
    - {fileID: 21300000, guid: c70ff78c544191a458018e4f33a7914a, type: 3}
    - {fileID: 21300000, guid: ac453e04dcabe684e9993ceeb3bf6fbf, type: 3}
    - {fileID: 21300000, guid: b29c9402d5d54ad4690e5d584bf36717, type: 3}
    - {fileID: 21300000, guid: 42b6e65e833a7384d9c402324080335c, type: 3}
    - {fileID: 21300000, guid: c62be7b8b26f9eb4fbe70637b344786b, type: 3}
    - {fileID: 21300000, guid: 9ead90a89f657a145813e96b30c0d67d, type: 3}
    - {fileID: 21300000, guid: 62e4105b1d360ff4fa4801fdd474f2f6, type: 3}
    - {fileID: 21300000, guid: ec00fd3f359a3144b8c5dd218900ebda, type: 3}
    - {fileID: 21300000, guid: 91d7d3d19c1a1f2418f53375985b7323, type: 3}
    - {fileID: 21300000, guid: 38c3d847b78d8c04489030ad9f135d1c, type: 3}
    - {fileID: 21300000, guid: 37c83f5ba504ba14e873d521301f0cfc, type: 3}
    - {fileID: 21300000, guid: a6df8bb60a1cae94f9b4b6b0ec131a75, type: 3}
    - {fileID: 21300000, guid: 3e53ae45aae02aa40bf899a329b7ff42, type: 3}
    - {fileID: 21300000, guid: d260f019ac6c88440a4e5bd293f9a10a, type: 3}
    - {fileID: 21300000, guid: cd4f8ad5ece70e247bb370ddb227c146, type: 3}
    - {fileID: 21300000, guid: 06c5427f8acbe254eb7912a26d1f100a, type: 3}
    - {fileID: 21300000, guid: 24d5287b18f9a014ba7bb5c320c2e3ea, type: 3}
    - {fileID: 21300000, guid: 5c08298004fff8445a77e9a496159328, type: 3}
    - {fileID: 21300000, guid: 7fe93d1d2f043ed42a576c177683ec01, type: 3}
    - {fileID: 21300000, guid: a97dcc996c1491945bfc0d2175b86dc5, type: 3}
    - {fileID: 21300000, guid: 6b32d382f1510f74dace42737977f35a, type: 3}
    - {fileID: 21300000, guid: e1486ae3377691a49b94b0a819cec88d, type: 3}
    - {fileID: 21300000, guid: b3c358b485914fa4488ce27caec2b64d, type: 3}
    - {fileID: 21300000, guid: 63338f7532eafdf46a49b2c7166fa9ee, type: 3}
    - {fileID: 21300000, guid: 55f17157a978cf043bede46ee52ce0ee, type: 3}
    - {fileID: 21300000, guid: 788d0359c39ae6d4e808c594b64c950c, type: 3}
    - {fileID: 21300000, guid: 28ce71cbc7b0ada44a4eb9acb8ab3298, type: 3}
    - {fileID: 21300000, guid: 1c80e1a7fdef5f44a9afaccba074bb88, type: 3}
    - {fileID: 21300000, guid: a566cb0358202c0499e212f36c21ceea, type: 3}
    - {fileID: 21300000, guid: a41e2fa061e73f54a962be62da3f3700, type: 3}
    - {fileID: 21300000, guid: 4e3ffc15e57b3c14998ba8e78410fe33, type: 3}
    - {fileID: 21300000, guid: a2ee5c0483201a342a222433e65fb402, type: 3}
    - {fileID: 21300000, guid: 6bf60036feca65f448c8cd3a5ed71b8a, type: 3}
    - {fileID: 21300000, guid: c329619351e0cc841819812cfe232b59, type: 3}
    - {fileID: 21300000, guid: 3fb183086a337e04da370ccfa82f2b78, type: 3}
    - {fileID: 21300000, guid: d841fa1a2977b2345a8cca257e4f2278, type: 3}
    - {fileID: 21300000, guid: be5c4e61ca650f345b60b94f3b4d58e1, type: 3}
    - {fileID: 21300000, guid: b871dd654dedae348b3b77dfb366fc4a, type: 3}
    - {fileID: 21300000, guid: f34bed07761ba174eac8223e79e4a469, type: 3}
    - {fileID: 21300000, guid: 5bfaea25509c4bd4184ee3e0564bc5bd, type: 3}
    - {fileID: 21300000, guid: 919c660296363254d8976789297679d0, type: 3}
    - {fileID: 21300000, guid: 7044c175c1e20a24f80e930b80ad4623, type: 3}
    - {fileID: 21300000, guid: 250c121e160f21b4ba2a47aa85f2e02c, type: 3}
    - {fileID: 21300000, guid: 553c183f1ec9da94aa8c16a634707458, type: 3}
    - {fileID: 21300000, guid: a7cbf492dc7f5364aace6ae8cdf8132a, type: 3}
    - {fileID: 21300000, guid: 0a6d137002a3aef41b9b93e0d5098007, type: 3}
    - {fileID: 21300000, guid: 0d69aa9ae79da89409c48075d3591c6e, type: 3}
    - {fileID: 21300000, guid: 5b06f2f0c862c6a44bd464a1eed64440, type: 3}
    - {fileID: 21300000, guid: 92aa63399d0f9a44aa85e39b2d44636c, type: 3}
    - {fileID: 21300000, guid: 6b03d6c0e6eb6584bb3770a47a0849e2, type: 3}
    - {fileID: 21300000, guid: e9276c02349f64441bca7a1b18267c57, type: 3}
    - {fileID: 21300000, guid: 0542394370c0f304c940480385c50303, type: 3}
    - {fileID: 21300000, guid: 169f3c711a3e49d43a33bddaac8ae40d, type: 3}
    - {fileID: 21300000, guid: c573bd1fca8e12f4f8b717877d30028d, type: 3}
    - {fileID: 21300000, guid: 590786b635dbe2543b9caa8180730dca, type: 3}
    - {fileID: 21300000, guid: cd7e0e2c9f7850b4e86ad1ef186f5b45, type: 3}
    - {fileID: 21300000, guid: 279ade59f889cd84c90931af4c7726ed, type: 3}
    - {fileID: 21300000, guid: 2353cc2cde31be64eb73109cac318755, type: 3}
    - {fileID: 21300000, guid: 2f618f52bf5d30e49aa7851886565456, type: 3}
    - {fileID: 21300000, guid: a8ef5ef228158ba4389ee267bca9107a, type: 3}
    - {fileID: 21300000, guid: 7e3b2ebe89535bf409bade9d739b40e7, type: 3}
    - {fileID: 21300000, guid: 6e7105e0dc706d84b982967fd2dedf8d, type: 3}
    - {fileID: 21300000, guid: 591f6097d9b44f5429c04c9cf757d216, type: 3}
    - {fileID: 21300000, guid: 6311be845e12a764999749caaa5b12af, type: 3}
    - {fileID: 21300000, guid: fae0b42121147b54f8eefce1175b0e27, type: 3}
    - {fileID: 21300000, guid: 6711ce03dae5f994da36051b1cccaf2b, type: 3}
    - {fileID: 21300000, guid: 87577e7f3604ae64e90f941ec54c1102, type: 3}
    - {fileID: 21300000, guid: 2433eb1476a14584e9bd1045a5957117, type: 3}
    - {fileID: 21300000, guid: 70346e95583377043828226b80a389d9, type: 3}
    - {fileID: 21300000, guid: d491e20cad7ea14449a348cb639a5c33, type: 3}
    - {fileID: 21300000, guid: 6cc33e4c038989043ae1322dcc8e9acc, type: 3}
    - {fileID: 21300000, guid: dfb37e76f8a829c44893a18b45758d1e, type: 3}
    - {fileID: 21300000, guid: 8c925e7c081fbb64aafb0be074bd358c, type: 3}
    - {fileID: 21300000, guid: caed3d11ca8a0524ebb88e2456a61c67, type: 3}
    - {fileID: 21300000, guid: d4dc3a4510ec0034e94881767cc22e52, type: 3}
    - {fileID: 21300000, guid: 8afba0cb8049a30448bfbee0994139e7, type: 3}
    - {fileID: 21300000, guid: 839ebbe6886127c4496a222986339eb9, type: 3}
    - {fileID: 21300000, guid: e1fd5329b3809764697bab684fdbf5a9, type: 3}
    - {fileID: 21300000, guid: 6b6a05327642af8408b85df2353ddfee, type: 3}
    - {fileID: 21300000, guid: b6e7945030c3d6c4f9953fac8a3a9159, type: 3}
    - {fileID: 21300000, guid: d50e16d4c6ccdf6479da43d80b717bd5, type: 3}
    - {fileID: 21300000, guid: 8fd09334f66b7d946890fb43c97b63d5, type: 3}
    - {fileID: 21300000, guid: 811925e43ca26ae4ba375207d448913c, type: 3}
    - {fileID: 21300000, guid: 518a38654e98eed4581dc1dbe10b073e, type: 3}
    - {fileID: 21300000, guid: 3a5904cd09b7bff4c86b9b62a49cfaa9, type: 3}
    - {fileID: 21300000, guid: 433f235bebb811b469b1b79b52b58a38, type: 3}
    - {fileID: 21300000, guid: 70fe55e9369a046439ef687e161e20b3, type: 3}
    - {fileID: 21300000, guid: 2b8e4070f6910904a9894f3b68ff5e14, type: 3}
    - {fileID: 21300000, guid: 94ef530fcee6aba45835988bc7d7b184, type: 3}
    - {fileID: 21300000, guid: 17f452df633c44544b03325406de0cd4, type: 3}
    - {fileID: 21300000, guid: e0cbc1b978f2f9b428f71e06bd4fcd8c, type: 3}
    - {fileID: 21300000, guid: a56194500a1557c4f8acedae7c68f658, type: 3}
    - {fileID: 21300000, guid: 884544f5ca7311443af57e008f0912f6, type: 3}
    - {fileID: 21300000, guid: ebf32484e35a01d4380b74444e40169a, type: 3}
    - {fileID: 21300000, guid: 5e23fb1ed5e36ce4b97c7e34caf67ddb, type: 3}
    - {fileID: 21300000, guid: 2cf6440ce5bdbcc43ac901cd7775c3c8, type: 3}
    - {fileID: 21300000, guid: de82974f48edec24c9ef419adb38a488, type: 3}
    - {fileID: 21300000, guid: f2c903d9e10014c45892d634699457aa, type: 3}
    - {fileID: 21300000, guid: 91c6b87c9375966469c30fa8c208c466, type: 3}
    - {fileID: 21300000, guid: c677e054cc39280478844eaf3a4c1d4d, type: 3}
    - {fileID: 21300000, guid: 29d30e399f3329e40a403c9f0f7f9c00, type: 3}
    - {fileID: 21300000, guid: 8f3e55169e9149e4c9abc49f115a8118, type: 3}
    - {fileID: 21300000, guid: 928aabfca23e77642af5a97c98b28a2d, type: 3}
    - {fileID: 21300000, guid: cac675004d4b11f4eb2eca1b68135e47, type: 3}
    - {fileID: 21300000, guid: 5d278960cd88b7c4f991a35e495f69f1, type: 3}
    - {fileID: 21300000, guid: daec5b66f3c997e4d9350a186bebb50b, type: 3}
    - {fileID: 21300000, guid: ddc91e3d2d22dea458955fe6698754b6, type: 3}
    - {fileID: 21300000, guid: 69a756eca6d0ba14098a29a39f8c4718, type: 3}
    - {fileID: 21300000, guid: b44ca6eabfc2fd642af16a135d4ec632, type: 3}
    - {fileID: 21300000, guid: 49dee03ccc941fc4580a3b934a1744e1, type: 3}
    - {fileID: 21300000, guid: b792b57dd3d1cb14e85a1653a58975a3, type: 3}
    - {fileID: 21300000, guid: cb6fb7064bd47f0498e04fe5a5ff2984, type: 3}
    - {fileID: 21300000, guid: ead14ca7e51a1dd4e8abb2a9f753f281, type: 3}
    - {fileID: 21300000, guid: 70d2ff860e35c0040a79a2e284e6cb5a, type: 3}
    - {fileID: 21300000, guid: 2352cb02c9603c14faa00ce6facce3f3, type: 3}
    - {fileID: 21300000, guid: 75b9ac9b689a3ee41a08555b70787769, type: 3}
    - {fileID: 21300000, guid: 6985be740d23dab45a9e18c83fd210b7, type: 3}
    - {fileID: 21300000, guid: b4ec24c07c4b03c4cb56e079bbababa1, type: 3}
    - {fileID: 21300000, guid: d80834961eef9ca44b28ac9dc03decd6, type: 3}
    - {fileID: 21300000, guid: c32b046fe059b084aa0b4bab142efb12, type: 3}
    - {fileID: 21300000, guid: 6844d7eef21db964db8d48f3145d356c, type: 3}
    - {fileID: 21300000, guid: d6937ad5d6c8bd84aa6f2fd417677644, type: 3}
    - {fileID: 21300000, guid: eb384888751eae943a559e2f7701fe94, type: 3}
    - {fileID: 21300000, guid: 86e25279753489f4eb795651d5644b8c, type: 3}
    - {fileID: 21300000, guid: 6b8ecc67fcd27544c9611f97a5c0d87c, type: 3}
    - {fileID: 21300000, guid: bd979dd6daf5b0e459965e193bb936a6, type: 3}
    - {fileID: 21300000, guid: 1defcea02f02ec84b82e028fddddf820, type: 3}
    - {fileID: 21300000, guid: 76167c80f3877954680bf9d58be8ea19, type: 3}
    - {fileID: 21300000, guid: 946e56f1c6bbd944b9050c2cb300003a, type: 3}
    - {fileID: 21300000, guid: a6c21ce3c68115b4c92f689fd98422b7, type: 3}
    - {fileID: 21300000, guid: cdf9f339356930d4dbcb9ddfa6552988, type: 3}
    - {fileID: 21300000, guid: a654f60cb45c58a418e3cd59b5c78af9, type: 3}
    - {fileID: 21300000, guid: 589425cb5369a194ba80db1a113a0679, type: 3}
    - {fileID: 21300000, guid: 4275ca42bc433144aa8b3a76dadc57f8, type: 3}
    - {fileID: 21300000, guid: df996f59dc8bfa140a544cc505bbeea4, type: 3}
    - {fileID: 21300000, guid: fb334f6199fab354186a157a2fb5659b, type: 3}
    - {fileID: 21300000, guid: b4fa1bb3ebb8a894eb5176bce372d71e, type: 3}
    - {fileID: 21300000, guid: 4a480f74d93bebb41a545d4b91b03138, type: 3}
    - {fileID: 21300000, guid: 7d3683c02b3810842881c9b3686dee1a, type: 3}
    - {fileID: 21300000, guid: 6df6d27b2da2e304e87f5f10c81680ec, type: 3}
    - {fileID: 21300000, guid: 35dbe263b213a184991f9b7cce38d9fb, type: 3}
    - {fileID: 21300000, guid: 4c967fbb8de82584e82162a242d2b1b2, type: 3}
    - {fileID: 21300000, guid: 425b96b5f52f060419ab5e6a4bd66935, type: 3}
    - {fileID: 21300000, guid: 95ee5976d718ea34d85af3df7c7994dc, type: 3}
    - {fileID: 21300000, guid: 50996341508b4aa4cb28f6cf2499b599, type: 3}
    - {fileID: 21300000, guid: 2e8958af3fa880046923c93760d044d2, type: 3}
    - {fileID: 21300000, guid: 6211384c46ef3cc4cb98df9e524b6bd5, type: 3}
    - {fileID: 21300000, guid: 79b194ed999821b4ba2bded8d69b430c, type: 3}
    - {fileID: 21300000, guid: 41df678622050264abca947c2e0a5a6b, type: 3}
    - {fileID: 21300000, guid: ca104ae64e378944fa2b75b0a8672a34, type: 3}
    - {fileID: 21300000, guid: 2964111904fbe5144b33e11d3cd16e22, type: 3}
    - {fileID: 21300000, guid: ff29e0c8b5c5e074b81d654e65d0db64, type: 3}
    - {fileID: 21300000, guid: 31e39ec1bacefc6409dd6771fe475c73, type: 3}
    - {fileID: 21300000, guid: ad1d60d279ed1ac49b1b23334ecb6f76, type: 3}
    - {fileID: 21300000, guid: 828b15cc55e695644814bbe6ba727b4d, type: 3}
    - {fileID: 21300000, guid: 6213daf4d5f5cd34b96a40526b88bcbb, type: 3}
    - {fileID: 21300000, guid: 9641f1718868b054fa0c6575e0037c9d, type: 3}
    - {fileID: 21300000, guid: 4f22ac79437d23f44af0bc5e5fbf8e53, type: 3}
    - {fileID: 21300000, guid: d245833529a5ef74d9a212a48384bad1, type: 3}
    - {fileID: 21300000, guid: c1495553cd9ca0e4abe8578400b9b5b5, type: 3}
    - {fileID: 21300000, guid: 47563c16f68b6cf499ba995b27a06b12, type: 3}
    - {fileID: 21300000, guid: f34ff9cdeb0544441b7e3ecbf309e455, type: 3}
    - {fileID: 21300000, guid: 7fb0c2c168767b94d9064d41789c5206, type: 3}
    - {fileID: 21300000, guid: 15db6781b557fc64ab56cd04b401445f, type: 3}
    - {fileID: 21300000, guid: 15db6781b557fc64ab56cd04b401445f, type: 3}
  m_AnimationClipSettings:
    serializedVersion: 2
    m_AdditiveReferencePoseClip: {fileID: 0}
    m_AdditiveReferencePoseTime: 0
    m_StartTime: 0
    m_StopTime: 6.166667
    m_OrientationOffsetY: 0
    m_Level: 0
    m_CycleOffset: 0
    m_HasAdditiveReferencePose: 0
    m_LoopTime: 1
    m_LoopBlend: 0
    m_LoopBlendOrientation: 0
    m_LoopBlendPositionY: 0
    m_LoopBlendPositionXZ: 0
    m_KeepOriginalOrientation: 0
    m_KeepOriginalPositionY: 1
    m_KeepOriginalPositionXZ: 0
    m_HeightFromFeet: 0
    m_Mirror: 0
  m_EditorCurves: []
  m_EulerEditorCurves: []
  m_HasGenericRootTransform: 0
  m_HasMotionFloatCurves: 0
  m_Events: []
