%YAML 1.1
%TAG !u! tag:unity3d.com,2011:
--- !u!1001 &3645059219238881883
PrefabInstance:
  m_ObjectHideFlags: 0
  serializedVersion: 2
  m_Modification:
    m_TransformParent: {fileID: 0}
    m_Modifications:
    - target: {fileID: 797275747703094888, guid: 7a4d745ef4752414ab3d488bdcbb5718,
        type: 3}
      propertyPath: m_RootOrder
      value: 0
      objectReference: {fileID: 0}
    - target: {fileID: 797275747703094888, guid: 7a4d745ef4752414ab3d488bdcbb5718,
        type: 3}
      propertyPath: m_LocalPosition.x
      value: 0
      objectReference: {fileID: 0}
    - target: {fileID: 797275747703094888, guid: 7a4d745ef4752414ab3d488bdcbb5718,
        type: 3}
      propertyPath: m_LocalPosition.y
      value: 0
      objectReference: {fileID: 0}
    - target: {fileID: 797275747703094888, guid: 7a4d745ef4752414ab3d488bdcbb5718,
        type: 3}
      propertyPath: m_LocalPosition.z
      value: 0
      objectReference: {fileID: 0}
    - target: {fileID: 797275747703094888, guid: 7a4d745ef4752414ab3d488bdcbb5718,
        type: 3}
      propertyPath: m_LocalRotation.w
      value: 1
      objectReference: {fileID: 0}
    - target: {fileID: 797275747703094888, guid: 7a4d745ef4752414ab3d488bdcbb5718,
        type: 3}
      propertyPath: m_LocalRotation.x
      value: 0
      objectReference: {fileID: 0}
    - target: {fileID: 797275747703094888, guid: 7a4d745ef4752414ab3d488bdcbb5718,
        type: 3}
      propertyPath: m_LocalRotation.y
      value: 0
      objectReference: {fileID: 0}
    - target: {fileID: 797275747703094888, guid: 7a4d745ef4752414ab3d488bdcbb5718,
        type: 3}
      propertyPath: m_LocalRotation.z
      value: 0
      objectReference: {fileID: 0}
    - target: {fileID: 797275747703094888, guid: 7a4d745ef4752414ab3d488bdcbb5718,
        type: 3}
      propertyPath: m_LocalEulerAnglesHint.x
      value: 0
      objectReference: {fileID: 0}
    - target: {fileID: 797275747703094888, guid: 7a4d745ef4752414ab3d488bdcbb5718,
        type: 3}
      propertyPath: m_LocalEulerAnglesHint.y
      value: 0
      objectReference: {fileID: 0}
    - target: {fileID: 797275747703094888, guid: 7a4d745ef4752414ab3d488bdcbb5718,
        type: 3}
      propertyPath: m_LocalEulerAnglesHint.z
      value: 0
      objectReference: {fileID: 0}
    - target: {fileID: 797275747703094893, guid: 7a4d745ef4752414ab3d488bdcbb5718,
        type: 3}
      propertyPath: m_Name
      value: Kart 2
      objectReference: {fileID: 0}
    m_RemovedComponents: []
  m_SourcePrefab: {fileID: 100100000, guid: 7a4d745ef4752414ab3d488bdcbb5718, type: 3}
--- !u!4 &4144899479379604531 stripped
Transform:
  m_CorrespondingSourceObject: {fileID: 797275747703094888, guid: 7a4d745ef4752414ab3d488bdcbb5718,
    type: 3}
  m_PrefabInstance: {fileID: 3645059219238881883}
  m_PrefabAsset: {fileID: 0}
--- !u!1 &4144899479379604534 stripped
GameObject:
  m_CorrespondingSourceObject: {fileID: 797275747703094893, guid: 7a4d745ef4752414ab3d488bdcbb5718,
    type: 3}
  m_PrefabInstance: {fileID: 3645059219238881883}
  m_PrefabAsset: {fileID: 0}
--- !u!114 &812732560771483429
MonoBehaviour:
  m_ObjectHideFlags: 0
  m_CorrespondingSourceObject: {fileID: 0}
  m_PrefabInstance: {fileID: 0}
  m_PrefabAsset: {fileID: 0}
  m_GameObject: {fileID: 4144899479379604534}
  m_Enabled: 1
  m_EditorHideFlags: 0
  m_Script: {fileID: 11500000, guid: aa584fbee541324448dd18d8409c7a41, type: 3}
  m_Name: 
  m_EditorClassIdentifier: 
  ObservedComponentsFoldoutOpen: 1
  Group: 0
  prefixField: -1
  observableSearch: 2
  Synchronization: 3
  OwnershipTransfer: 0
  ObservedComponents: []
  viewIdField: 0
  InstantiationId: 0
  isRuntimeInstantiated: 0
--- !u!1001 &8769445973497446503
PrefabInstance:
  m_ObjectHideFlags: 0
  serializedVersion: 2
  m_Modification:
    m_TransformParent: {fileID: 4144899479379604531}
    m_Modifications:
    - target: {fileID: 7605396105310605450, guid: a7ad83c3b9834ea4690262a52ca92889,
        type: 3}
      propertyPath: m_RootOrder
      value: 2
      objectReference: {fileID: 0}
    - target: {fileID: 7605396105310605450, guid: a7ad83c3b9834ea4690262a52ca92889,
        type: 3}
      propertyPath: m_LocalPosition.x
      value: 0
      objectReference: {fileID: 0}
    - target: {fileID: 7605396105310605450, guid: a7ad83c3b9834ea4690262a52ca92889,
        type: 3}
      propertyPath: m_LocalPosition.y
      value: 0
      objectReference: {fileID: 0}
    - target: {fileID: 7605396105310605450, guid: a7ad83c3b9834ea4690262a52ca92889,
        type: 3}
      propertyPath: m_LocalPosition.z
      value: 0
      objectReference: {fileID: 0}
    - target: {fileID: 7605396105310605450, guid: a7ad83c3b9834ea4690262a52ca92889,
        type: 3}
      propertyPath: m_LocalRotation.w
      value: 1
      objectReference: {fileID: 0}
    - target: {fileID: 7605396105310605450, guid: a7ad83c3b9834ea4690262a52ca92889,
        type: 3}
      propertyPath: m_LocalRotation.x
      value: -0
      objectReference: {fileID: 0}
    - target: {fileID: 7605396105310605450, guid: a7ad83c3b9834ea4690262a52ca92889,
        type: 3}
      propertyPath: m_LocalRotation.y
      value: -0
      objectReference: {fileID: 0}
    - target: {fileID: 7605396105310605450, guid: a7ad83c3b9834ea4690262a52ca92889,
        type: 3}
      propertyPath: m_LocalRotation.z
      value: -0
      objectReference: {fileID: 0}
    - target: {fileID: 7605396105310605450, guid: a7ad83c3b9834ea4690262a52ca92889,
        type: 3}
      propertyPath: m_LocalEulerAnglesHint.x
      value: 0
      objectReference: {fileID: 0}
    - target: {fileID: 7605396105310605450, guid: a7ad83c3b9834ea4690262a52ca92889,
        type: 3}
      propertyPath: m_LocalEulerAnglesHint.y
      value: 0
      objectReference: {fileID: 0}
    - target: {fileID: 7605396105310605450, guid: a7ad83c3b9834ea4690262a52ca92889,
        type: 3}
      propertyPath: m_LocalEulerAnglesHint.z
      value: 0
      objectReference: {fileID: 0}
    - target: {fileID: 7605396105310605461, guid: a7ad83c3b9834ea4690262a52ca92889,
        type: 3}
      propertyPath: m_Name
      value: StandbyCanvas
      objectReference: {fileID: 0}
    m_RemovedComponents: []
  m_SourcePrefab: {fileID: 100100000, guid: a7ad83c3b9834ea4690262a52ca92889, type: 3}
